<?xml version="1.0" encoding="utf-8"?>
<!-- Generator: Adobe Illustrator 15.1.0, SVG Export Plug-In . SVG Version: 6.00 Build 0)  -->
<!DOCTYPE svg PUBLIC "-//W3C//DTD SVG 1.1//EN" "http://www.w3.org/Graphics/SVG/1.1/DTD/svg11.dtd">
<svg version="1.1" id="Layer_1" xmlns="http://www.w3.org/2000/svg" xmlns:xlink="http://www.w3.org/1999/xlink" x="0px" y="0px"
	 width="17.799px" height="17.779px" viewBox="0 0 17.799 17.779" enable-background="new 0 0 17.799 17.779" xml:space="preserve">
<path fill="#333333" d="M9.679,8.899l7.952-7.954c0.224-0.222,0.224-0.556,0-0.779c-0.222-0.222-0.556-0.222-0.777,0L8.899,8.12
	L0.946,0.167c-0.223-0.222-0.557-0.222-0.779,0c-0.223,0.223-0.223,0.557,0,0.779l7.954,7.954l-7.954,7.953
	c-0.222,0.222-0.222,0.556,0,0.779c0.111,0.11,0.26,0.147,0.408,0.147s0.297-0.037,0.371-0.147l7.953-7.954l7.953,7.954
	c0.111,0.11,0.26,0.147,0.408,0.147s0.297-0.037,0.371-0.147c0.222-0.224,0.222-0.558,0-0.779L9.679,8.899z"/>
</svg>
